     1                                  ;;#######################
     2                                  ;;# ADD.ASM
     3                                  ;;#
     4                                  ;;# Purpose:
     5                                  ;;#   Illustrate
     6                                  ;;#   programatic
     7                                  ;;#   features
     8                                  ;;#
     9                                  ;;######################
    10                                  
    11                                  ;; -----------------------------------------
    12                                  ;; To assemble and run:
    13                                  ;;
    14                                  ;;   nasm -felf64 -l add.lst -g add.asm
    15                                  ;;   ld add.o -o add
    16                                  ;;   ./add
    17                                  ;; ------------------------------------------
    18                                  
    19                                          global _start               ; Declares _start as a
    20                                                                      ; global symbol, to be
    21                                                                      ; known in foreign files
    22                                  
    23                                  
    24                                          section    .text            ; Where code lays.
    25                                  ;===============================================================
    26                                  ; SECTION: ALGORTIHM
    27                                  ;===============================================================
    28                                  
    29                                  ;;;;;;;;;;;;;;;;;;;;;;;;;;;;;;;;;;;;;;;;;;;;;
    30                                  ;; _start
    31                                  ;;      Prepares environemt to run.
    32                                  ;;      Usually provided by the compiler and
    33                                  ;;      unseeing to the programmer.
    34                                  ;;
    35                                  ;;  INPUTS:     -
    36                                  ;;  DESTROYS:   RAX, RDI
    37                                  ;;  STACK USE:  0 BYTES
    38                                  ;;  RETURNS:    RDI (exit value)
    39                                  ;;
    40                                  _start:
    41                                         ; Enter protrocol
    42 00000000 55                              push    rbp                 ; Create a new stack since
    43 00000001 4889E5                          mov     rbp, rsp            ; BP = 0 at the beginning
    44                                                                      ; Every push in a 64 bit arch
    45                                                                      ; moves 8 bytes to the stack
    46                                  
    47                                  
    48                                          ; Execute user program
    49 00000004 E82C000000                      call    _main               ; Initiate c program
    50                                  
    51                                  
    52                                          ; Exit protocol
    53 00000009 5D                              pop     rbp                 ; Destroy the stack
    54                                                                      ; before exiting.
    55 0000000A B83C000000                      mov     rax, 60             ; Call OS exit function
    56 0000000F 4831FF                          xor     rdi, rdi
    57 00000012 0F05                            syscall                     ; Llamadas al SO.
    58                                  
    59                                  
    60                                  ;;;;;;;;;;;;;;;;;;;;;;;;;;;;;;;;;;;;;;;;;;;;;
    61                                  ;; function_add
    62                                  ;;      Adds two numbers:
    63                                  ;;
    64                                  ;;  INPUTS:     [BP+4], [BP+8]
    65                                  ;;  DESTROYS:   RAX, RBX
    66                                  ;;  STACK USE:  16 BYTES + 4
    67                                  ;;  RETURNS:    RAX (exit value)
    68                                  ;;
    69                                  function_add:
    70                                         ; Enter protrocol
    71 00000014 55                              push    rbp                 ; 4 bytes needed on
    72                                                                      ; every function call
    73 00000015 4889E5                          mov     rbp, rsp            ; Create a new stack
    74                                  
    75                                          ; Local variable allocation
    76 00000018 4883EC10                        sub     rsp, 16             ; Room for 4 int's
    77                                  
    78                                          ; Algorithm
    79 0000001C 488B4510                        mov     rax, [rbp+16]       ; Feed processor with
    80 00000020 488B5D18                        mov     rbx, [rbp+24]       ; function call parameters
    81                                                                      ; First param is 16 bytes
    82                                                                      ; offset since we have pushed
    83                                                                      ; return address in the call
    84                                                                      ; and RBP in the Enter Protocol
    85 00000024 4801D8                          add     rax, rbx            ; AX = AX + BX
    86                                                                      ; Notice the result is
    87                                                                      ; stored on same register
    88                                                                      ; as operand 1 (always AX)
    89 00000027 48890425[12000000]              mov     [result], rax       ; Send result back to memory
    90                                                                      ; Whenever result is not
    91                                                                      ; stored becomes lost.
    92                                          ; End of Algorithm
    93                                  
    94                                          ; Exit Protocol
    95 0000002F 4883C410                        add     rsp, 16             ; Free local variables space
    96 00000033 5D                              pop     rbp                 ; Restore old stack
    97 00000034 C3                              ret                         ; Pops out of the stack
    98                                                                      ; the return address and
    99                                                                      ; return
   100                                  
   101                                  
   102                                  ;;;;;;;;;;;;;;;;;;;;;;;;;;;;;;;;;;;;;;;;;;;;;
   103                                  ;; _main
   104                                  ;;      Adds two numbers and print result
   105                                  ;;
   106                                  ;;  INPUTS:     -
   107                                  ;;  DESTROYS:   RAX, RDX, RDI, RSI
   108                                  ;;  STACK USE:  16 BYTES + 4
   109                                  ;;  RETURNS:    -
   110                                  ;;
   111                                  _main:                              ; Notice main is a global
   112                                                                      ; id since it is prefixed
   113                                                                      ; by an underscore.
   114                                          ; Enter protocol
   115 00000035 55                              push     rbp                ; callee own stack
   116 00000036 4889E5                          mov      rbp, rsp
   117                                                                      ; Notice no local variables
   118                                  
   119                                  
   120                                          ; Start of function call
   121 00000039 6A03                            push     3                  ; push params in reverse order
   122 0000003B 6A06                            push     6                  ; Each int are 4 bytes long
   123 0000003D E8D2FFFFFF                      call     function_add
   124 00000042 4883C410                        add      rsp, 16            ; Take params out of the stack
   125                                                                      ; 2 params x 8 bytes each.
   126                                                                      ; Caller responsibility on
   127                                                                      ; cdecl convantion call.
   128                                  
   129 00000046 890425[12000000]                mov      dword[result], eax ; EAX four less significant
   130                                                                      ; bytes or RAX
   131                                  
   132                                  
   133 0000004D 4883C030                        add     rax, 0x30           ; return value on RAX
   134                                                                      ; 0x30: ASCII code of '0'
   135 00000051 880425[10000000]                mov     byte[mssg + 16], al ; Notice mssg is the direction
   136                                                                      ; where the constants are written
   137                                                                      ; AL: Low byte of RAX
   138                                  
   139                                  
   140                                          ; Print routine
   141 00000058 B801000000                      mov     rax, 1              ; Ask Os to print
   142 0000005D BF01000000                      mov     rdi, 1              ; RDI = 1 (file handle of stdout)
   143 00000062 48BE-                           mov     rsi, mssg           ; Source - Start of string
   144 00000064 [0000000000000000] 
   145                                  
   146 0000006C BA12000000                      mov     rdx, len            ; Cantidad de bytes a imprimr
   147 00000071 0F05                            syscall
   148                                          ; End Of Print Routine
   149                                  
   150                                  
   151 00000073 5D                              pop     rbp                 ; Restore caller stack
   152                                  
   153 00000074 C3                              ret                         ; No code executed beyond
   154                                                                      ; this ret
   155                                  
   156                                  ;===============================================================
   157                                  ; SECTION: VARIABLES
   158                                  ;===============================================================
   159                                  
   160                                  ; compilers don't like you to change string bytes
   161                                  ; since these constants can smash inside variables data.
   162                                  ; Notice strings are too long to fit in a register.
   163                                  ; We always refer to them by the address of the
   164                                  ; first byte (mssg).
   165                                  
   166                                          section     .data           ; Initialized Data
   167                                  ; STRING CONSTANTS
   168 00000000 456C20726573756C74-     mssg:   db      "El resultado es 0", 0x0A
   169 00000009 61646F20657320300A 
   170                                  ; Notice is a good practice to use english language
   171                                  ; despite spanish program output.
   172                                          len     equ $ - mssg
   173                                  
   174                                  ; len is a constant that preprocessor will change in every
   175                                  ; appearance. Its value is figured out at compile time by
   176                                  ; substracting mssg offset to current offset ($).
   177                                  ; Remember mssg is just a label. Just another way of saying
   178                                  ; the offset.
   179                                  
   180                                  ; VARIABLES
   181 00000012 00000000                result: db      0, 0, 0, 0          ; db stands for define byte
   182                                                                      ; result is a variable
   183                                                                      ; result value can be written
   184                                                                      ; inside a register
   185                                  
   186                                          section     .bss            ; Unitialized Data
   187                                                                      ; Block Started By Symbol
   188                                  
